…
### Latest data on database

```r
release_info()
#> [1] "Latest release info: 2020-12-15"
```

### Latest data on database

```r
all_codes()
#># A tibble: 4,316 x 1
#>   code    
#>   <chr>   
#> 1 KBP1000J
#> 2 KBP1000M
#> 3 KBP1005J
#> 4 KBP1005M
#> 5 KBP1006J
#> 6 KBP1006M
#> 7 KBP1007J
#> 8 KBP1007M
#> 9 KBP1008J
#>10 KBP1008M
#># … with 4,306 more rows
```
…
